Applying operations over different columns
…
Applying operations over different columns

With group_by(), dplyr makes it easy to apply operations over different groups of rows:

starwars %>%
  group_by(gender) %>%
  summarise(mean(height, na.rm = TRUE))
#> # A tibble: 5 x 2
#>   gender        `mean(height, na.rm = TRUE)`
#>   <chr>                                <dbl>
#> 1 <NA>                                  120 
#> 2 female                                165.
#> 3 hermaphrodite                         175 
#> 4 male                                  179.
#> # … with 1 more row
…
_all verbs operate on all columns of the data frame. You can summarise all columns of a data frame within groups with summarise_all():

iris %>% group_by(Species) %>% summarise_all(mean)
#> # A tibble: 3 x 5
#>   Species    Sepal.Length Sepal.Width Petal.Length Petal.Width
#>   <fct>             <dbl>       <dbl>        <dbl>       <dbl>
#> 1 setosa             5.01        3.43         1.46       0.246
#> 2 versicolor         5.94        2.77         4.26       1.33 
#> 3 virginica          6.59        2.97         5.55       2.03

_if verbs operate conditionally, on all columns for which a predicate returns TRUE. If you are familiar with purrr, the idea is similar to the conditional mapper purrr::map_if(). Promoting all character columns of a data frame as grouping variables is as simple as:

starwars %>% group_by_if(is.character)
#> # A tibble: 87 x 13
#> # Groups:   name, hair_color, skin_color, eye_color, gender, homeworld,
#> #   species [87]
#>   name  height  mass hair_color skin_color eye_color birth_year gender
#>   <chr>  <int> <dbl> <chr>      <chr>      <chr>          <dbl> <chr> 
#> 1 Luke…    172    77 blond      fair       blue            19   male  
#> 2 C-3PO    167    75 <NA>       gold       yellow         112   <NA>  
#> 3 R2-D2     96    32 <NA>       white, bl… red             33   <NA>  
#> 4 Dart…    202   136 none       white      yellow          41.9 male  
#> # … with 83 more rows, and 5 more variables: homeworld <chr>,
#> #   species <chr>, films <list>, vehicles <list>, starships <list>
…
# `mutate_` variants recycle to group size
mtcars[1:5] %>% mutate_all(mean)
#> # A tibble: 32 x 5
#>     mpg   cyl  disp    hp  drat
#>   <dbl> <dbl> <dbl> <dbl> <dbl>
#> 1  20.1  6.19  231.  147.  3.60
#> 2  20.1  6.19  231.  147.  3.60
#> 3  20.1  6.19  231.  147.  3.60
#> 4  20.1  6.19  231.  147.  3.60
#> # … with 28 more rows
…
# All scoped verbs know about groups
mtcars[1:5] %>% group_by(cyl) %>% summarise_all(mean)
#> # A tibble: 3 x 5
#>     cyl   mpg  disp    hp  drat
#>   <dbl> <dbl> <dbl> <dbl> <dbl>
#> 1     4  26.7  105.  82.6  4.07
#> 2     6  19.7  183. 122.   3.59
#> 3     8  15.1  353. 209.   3.23

The other scoped variants also accept optional functions to map over the selection of columns. For instance, you could group by a selection of variables and transform them on the fly:

iris %>% group_by_if(is.factor, as.character)
#> # A tibble: 150 x 5
#> # Groups:   Species [3]
#>   Sepal.Length Sepal.Width Petal.Length Petal.Width Species
#>          <dbl>       <dbl>        <dbl>       <dbl> <chr>  
#> 1          5.1         3.5          1.4         0.2 setosa 
#> 2          4.9         3            1.4         0.2 setosa 
#> 3          4.7         3.2          1.3         0.2 setosa 
#> 4          4.6         3.1          1.5         0.2 setosa 
#> # … with 146 more rows

or transform the column names of selected variables:

storms %>% select_at(vars(name:hour), toupper)
#> # A tibble: 10,010 x 5
#>   NAME   YEAR MONTH   DAY  HOUR
#>   <chr> <dbl> <dbl> <int> <dbl>
#> 1 Amy    1975     6    27     0
#> 2 Amy    1975     6    27     6
#> 3 Amy    1975     6    27    12
#> 4 Amy    1975     6    27    18
#> # … with 10,006 more rows
…
