Going further with tidyeval
…
It is good practice to make one final adjustment. Because arguments in ... can have arbitrary names, we don’t want to “use up” valid names. In tidyverse packages we use the convention of prefixing named arguments with a dot so that conflicts are less likely:

grouped_mean <- function(.data, .summary_var, ...) {
  .summary_var <- enquo(.summary_var)

  .data %>%
    group_by(...) %>%
    summarise(mean = mean(!!.summary_var))
}

Let’s check this function now works with any number of grouping variables:

grouped_mean(mtcars, disp, cyl, am)
#> # A tibble: 6 x 3
#> # Groups:   cyl [?]
#>     cyl    am  mean
#>   <dbl> <dbl> <dbl>
#> 1     4     0 136. 
#> 2     4     1  93.6
#> 3     6     0 205. 
#> 4     6     1 155  
#> # ... with 2 more rows

grouped_mean(mtcars, disp, cyl, am, vs)
#> # A tibble: 7 x 4
#> # Groups:   cyl, am [?]
#>     cyl    am    vs  mean
#>   <dbl> <dbl> <dbl> <dbl>
#> 1     4     0     1 136. 
#> 2     4     1     0 120. 
#> 3     4     1     1  89.8
#> 4     6     0     1 205. 
#> # ... with 3 more rows
…
When we use the unquote operator !!, group_by() gets a list of expressions. When we unquote-splice with !!!, the expressions are forwarded as individual arguments to group_by(). Let’s use the latter to can fix grouped_mean2():

grouped_mean2 <- function(.data, .summary_var, ...) {
  summary_var <- enquo(.summary_var)
  group_vars <- enquos(...)

  .data %>%
    group_by(!!!group_vars) %>%
    summarise(mean = mean(!!summary_var))
}

The quote and unquote version of grouped_mean() does a bit more work but is functionally identical to the forwarding version:

grouped_mean(mtcars, disp, cyl, am)
#> # A tibble: 6 x 3
#> # Groups:   cyl [?]
#>     cyl    am  mean
#>   <dbl> <dbl> <dbl>
#> 1     4     0 136. 
#> 2     4     1  93.6
#> 3     6     0 205. 
#> 4     6     1 155  
#> # ... with 2 more rows

grouped_mean2(mtcars, disp, cyl, am)
#> # A tibble: 6 x 3
#> # Groups:   cyl [?]
#>     cyl    am  mean
#>   <dbl> <dbl> <dbl>
#> 1     4     0 136. 
#> 2     4     1  93.6
#> 3     6     0 205. 
#> 4     6     1 155  
#> # ... with 2 more rows
…
grouped_mean2 <- function(.data, .summary_var, ...) {
  summary_var <- enquo(.summary_var)
  group_vars <- enquos(...)

  # Get and modify the default name
  summary_nm <- quo_name(summary_var)
  summary_nm <- paste0("avg_", summary_nm)

  .data %>%
    group_by(!!!group_vars) %>%
    summarise(!!summary_nm := mean(!!summary_var))  # Unquote the name
}

grouped_mean2(mtcars, disp, cyl, am)
#> # A tibble: 6 x 3
#> # Groups:   cyl [?]
#>     cyl    am avg_disp
#>   <dbl> <dbl>    <dbl>
#> 1     4     0    136. 
#> 2     4     1     93.6
#> 3     6     0    205. 
#> 4     6     1    155  
#> # ... with 2 more rows
…
  summary_nm <- quo_name(summary_var)
  summary_nm <- paste0("avg_", summary_nm)

  # Modify the names of the list of quoted dots
  names(group_vars) <- paste0("groups_", names(group_vars))

  .data %>%
    group_by(!!!group_vars) %>%  # Unquote-splice as usual
    summarise(!!summary_nm := mean(!!summary_var))
}

grouped_mean2(mtcars, disp, cyl, am)
#> # A tibble: 6 x 3
#> # Groups:   groups_cyl [?]
#>   groups_cyl groups_am avg_disp
#>        <dbl>     <dbl>    <dbl>
#> 1          4         0    136. 
#> 2          4         1     93.6
#> 3          6         0    205. 
#> 4          6         1    155  
#> # ... with 2 more rows
…
  # Wrap the summary variables with mean()
  summary_vars <- purrr::map(summary_vars, function(var) {
    expr(mean(!!var, na.rm = TRUE))
  })

  # Prefix the names with `avg_`
  names(summary_vars) <- paste0("avg_", names(summary_vars))

  .data %>%
    group_by(!!group_var) %>%
    summarise(!!!summary_vars)
}

grouped_mean3(starwars, species, height)
#> # A tibble: 38 x 2
#>   species  avg_height
#>   <chr>         <dbl>
#> 1 Aleena           79
#> 2 Besalisk        198
#> 3 Cerean          198
#> 4 Chagrian        196
#> # ... with 34 more rows

grouped_mean3(starwars, species, height, mass)
#> # A tibble: 38 x 3
#>   species  avg_height avg_mass
#>   <chr>         <dbl>    <dbl>
#> 1 Aleena           79       15
#> 2 Besalisk        198      102
#> 3 Cerean          198       82
#> 4 Chagrian        196      NaN
#> # ... with 34 more rows
