Tidy eval recipes for dplyr
…
function(.data, .summary_var, ...)

Because of the magic of dots forwarding we don’t have to use the quote-and-unquote pattern. We can just pass ... to other quoting functions like group_by():

grouped_mean <- function(.data, .summary_var, ...) {
  summary_var <- enquo(.summary_var)

  .data %>%
    group_by(...) %>%  # Forward `...`
    summarise(mean = mean(!!summary_var))
}

grouped_mean(mtcars, disp, cyl, am)
#> # A tibble: 6 x 3
#> # Groups:   cyl [?]
#>     cyl    am  mean
#>   <dbl> <dbl> <dbl>
#> 1     4     0 136. 
#> 2     4     1  93.6
#> 3     6     0 205. 
#> 4     6     1 155  
#> # ... with 2 more rows
…
Unquoting multiple arguments requires a variant of !!, the unquote-splice operator !!! which unquotes each element of a list as an independent argument in the surrounding function call.

Quote the dots with enquos() and unquote-splice them with !!!:

grouped_mean2 <- function(.data, .summary_var, ...) {
  summary_var <- enquo(.summary_var)
  group_vars <- enquos(...)  # Get a list of quoted dots

  .data %>%
    group_by(!!!group_vars) %>%  # Unquote-splice the list
    summarise(mean = mean(!!summary_var))
}

grouped_mean2(mtcars, disp, cyl, am)
#> # A tibble: 6 x 3
#> # Groups:   cyl [?]
#>     cyl    am  mean
#>   <dbl> <dbl> <dbl>
#> 1     4     0 136. 
#> 2     4     1  93.6
#> 3     6     0 205. 
#> 4     6     1 155  
#> # ... with 2 more rows
…
  summary_vars <- purrr::map(summary_vars, function(var) {
    expr(mean(!!var, na.rm = TRUE))
  })

  data %>%
    group_by(!!!group_vars) %>%
    summarise(n = n(), !!!summary_vars)
}

grouped_mean3(starwars, vars(species, gender), vars(height))
#> # A tibble: 43 x 4
#> # Groups:   species [?]
#>   species  gender     n `mean(height, na.rm = TRUE)`
#>   <chr>    <chr>  <int>                        <dbl>
#> 1 Aleena   male       1                           79
#> 2 Besalisk male       1                          198
#> 3 Cerean   male       1                          198
#> 4 Chagrian male       1                          196
#> # ... with 39 more rows

grouped_mean3(starwars, vars(gender), vars(height, mass))
#> # A tibble: 5 x 4
#>   gender            n `mean(height, na.rm = TRUE… `mean(mass, na.rm = TRU…
#>   <chr>         <int>                       <dbl>                    <dbl>
#> 1 female           19                        165.                     54.0
#> 2 hermaphrodite     1                        175                    1358  
#> 3 male             62                        179.                     81.0
#> 4 none              2                        200                     140  
#> # ... with 1 more row

One advantage of vars() is that it lets users specify their own names:

grouped_mean3(starwars, vars(gender), vars(h = height, m = mass))
#> # A tibble: 5 x 4
#>   gender            n     h      m
#>   <chr>         <int> <dbl>  <dbl>
#> 1 female           19  165.   54.0
#> 2 hermaphrodite     1  175  1358  
#> 3 male             62  179.   81.0
#> 4 none              2  200   140  
#> # ... with 1 more row
…
grouped_mean2 <- function(.data, .summary_var, ...) {
  summary_var <- enquo(.summary_var)
  group_vars <- enquos(..., .named = TRUE)  # Ensure quoted dots are named

  # Prefix the names of the list of quoted dots
  names(group_vars) <- paste0("group_", names(group_vars))

  .data %>%
    group_by(!!!group_vars) %>%  # Unquote-splice the list
    summarise(mean = mean(!!summary_var))
}

grouped_mean2(mtcars, disp, cyl, am)
#> # A tibble: 6 x 3
#> # Groups:   group_cyl [?]
#>   group_cyl group_am  mean
#>       <dbl>    <dbl> <dbl>
#> 1         4        0 136. 
#> 2         4        1  93.6
#> 3         6        0 205. 
#> 4         6        1 155  
#> # ... with 2 more rows

One big downside of this technique is that all arguments get a prefix, including the arguments that were given specific names by the user:

grouped_mean2(mtcars, disp, c = cyl, a = am)
#> # A tibble: 6 x 3
#> # Groups:   group_c [?]
#>   group_c group_a  mean
#>     <dbl>   <dbl> <dbl>
#> 1       4       0 136. 
#> 2       4       1  93.6
#> 3       6       0 205. 
#> 4       6       1 155  
#> # ... with 2 more rows
…
Note how we add the default names before wrapping the arguments in a mean() call. This way we avoid including mean() in the name:

quo_name(quote(mass))
#> [1] "mass"

quo_name(quote(mean(mass, na.rm = TRUE)))
#> [1] "mean(mass, na.rm = TRUE)"

We get nicely prefixed default names:

grouped_mean3(starwars, vars(gender), vars(height, mass))
#> # A tibble: 5 x 4
#>   gender            n mean_height mean_mass
#>   <chr>         <int>       <dbl>     <dbl>
#> 1 female           19        165.      54.0
#> 2 hermaphrodite     1        175     1358  
#> 3 male             62        179.      81.0
#> 4 none              2        200      140  
#> # ... with 1 more row

And the user is able to fully override the names:

grouped_mean3(starwars, vars(gender), vars(h = height, m = mass))
#> # A tibble: 5 x 4
#>   gender            n     h      m
#>   <chr>         <int> <dbl>  <dbl>
#> 1 female           19  165.   54.0
#> 2 hermaphrodite     1  175  1358  
#> 3 male             62  179.   81.0
#> 4 none              2  200   140  
#> # ... with 1 more row
…
