Introduction to tidyeval
…
If you use sym() instead of enquo(), you end up with an evaluating function that transforms its inputs into symbols that can suitably be unquoted:

grouped_mean2 <- function(data, group_var, summary_var) {
  group_var <- sym(group_var)
  summary_var <- sym(summary_var)

  data %>%
    group_by(!!group_var) %>%
    summarise(mean = mean(!!summary_var))
}

With this simple change we now have an evaluating wrapper which can be used in the same way as [[. You can call grouped_mean2() with direct references:

grouped_mean2(starwars, "gender", "mass")
#> # A tibble: 5 x 2
#>   gender         mean
#>   <chr>         <dbl>
#> 1 female           NA
#> 2 hermaphrodite  1358
#> 3 male             NA
#> 4 none             NA
#> # ... with 1 more row

Or indirect references:

grp_var <- "gender"
sum_var <- "mass"
grouped_mean2(starwars, grp_var, sum_var)
#> # A tibble: 5 x 2
#>   gender         mean
#>   <chr>         <dbl>
#> 1 female           NA
#> 2 hermaphrodite  1358
#> 3 male             NA
#> 4 none             NA
#> # ... with 1 more row
…
