Recoding columns and replacing values
…
case_when()

case_when() is the most general function in the family.
It works by evaluating each case sequentially and using the first match
for each element to determine the corresponding value in the output. To
demonstrate, we’ll look at a dataset of some 5k times in minutes:

set.seed(123)
racers <- tibble(
  id = seq_len(100),
  time = round(sample(1200:2100, size = 100, replace = TRUE) / 60, 2)
)
racers
#> # A tibble: 100 × 2
#>      id  time
#>   <int> <dbl>
#> 1     1  26.9
#> 2     2  27.7
#> 3     3  23.0
#> 4     4  28.8
#> # ℹ 96 more rows
We can use case_when() to categorize these times into
tiers:

tiers <- racers |>
  mutate(
    tier = case_when(
      time < 23 ~ "A",
      time < 27 ~ "B",
      time < 30 ~ "C",
      time < 33 ~ "D"
    )
  )

tiers
#> # A tibble: 100 × 3
#>      id  time tier 
#>   <int> <dbl> <chr>
#> 1     1  26.9 B    
#> 2     2  27.7 C    
#> 3     3  23.0 A    
#> 4     4  28.8 C    
#> # ℹ 96 more rows
…
There are a few options for dealing with unmatched locations. You can
leave them as NA if that makes sense for your use case, or
you can specify a .default value:

racers |>
  mutate(
    tier = case_when(
      time < 23 ~ "A",
      time < 27 ~ "B",
      time < 30 ~ "C",
      time < 33 ~ "D",
      .default = "unknown"
    )
  )
#> # A tibble: 100 × 3
#>      id  time tier 
#>   <int> <dbl> <chr>
#> 1     1  26.9 B    
#> 2     2  27.7 C    
#> 3     3  23.0 A    
#> 4     4  28.8 C    
#> # ℹ 96 more rows
…
id_banned_shoes <- c(2, 10, 15, 32, 65)
id_false_start <- c(1, 2, 5, 20, 55, 74, 91)

We could add this information in a few ways. With
case_when():

racers |>
  mutate(
    time = case_when(
      id %in% id_banned_shoes ~ NA,
      id %in% id_false_start ~ time + 1 / 3,
      .default = time
    )
  )
#> # A tibble: 100 × 2
#>      id  time
#>   <int> <dbl>
#> 1     1  27.2
#> 2     2  NA  
#> 3     3  23.0
#> 4     4  28.8
#> # ℹ 96 more rows

Or in two steps with if_else():

racers |>
  mutate(time = if_else(id %in% id_banned_shoes, NA, time)) |>
  mutate(time = if_else(id %in% id_false_start, time + 1 / 3, time))
#> # A tibble: 100 × 2
#>      id  time
#>   <int> <dbl>
#> 1     1  27.2
#> 2     2  NA  
#> 3     3  23.0
#> 4     4  28.8
#> # ℹ 96 more rows
…
replace_when() lets you pull the primary input to the
front (which also makes it compatible with the pipe!), making the intent
more clear:

racers |>
  mutate(
    time = time |>
      replace_when(
        id %in% id_banned_shoes ~ NA,
        id %in% id_false_start ~ time + 1 / 3
      )
  )
#> # A tibble: 100 × 2
#>      id  time
#>   <int> <dbl>
#> 1     1  27.2
#> 2     2  NA  
#> 3     3  23.0
#> 4     4  28.8
#> # ℹ 96 more rows
…
This actually doesn’t work! Replacing with NA does work,
but replace() requires that the result of
time + 1 / 3 must be preemptively subset to the places
where the condition is true. You’d have to do something more complicated
to mimic replace_when():

racers |>
  mutate(time = base::replace(time, id %in% id_banned_shoes, NA)) |>
  mutate(time = {
    loc <- id %in% id_false_start
    base::replace(time, loc, time[loc] + 1 / 3)
  })
#> # A tibble: 100 × 2
#>      id  time
#>   <int> <dbl>
#> 1     1  27.2
#> 2     2  NA  
#> 3     3  23.0
#> 4     4  28.8
#> # ℹ 96 more rows
…
tiers <- racers |>
  mutate(
    tier = case_when(
      time < 23 ~ "A",
      time < 27 ~ "B",
      time < 30 ~ "C",
      time < 33 ~ "D",
      .default = "unknown"
    ) |>
      factor(levels = c("A", "B", "C", "D", "unknown"))
  )

tiers
#> # A tibble: 100 × 3
#>      id  time tier 
#>   <int> <dbl> <fct>
#> 1     1  26.9 B    
#> 2     2  27.7 C    
#> 3     3  23.0 A    
#> 4     4  28.8 C    
#> # ℹ 96 more rows

Note that the following case_when() solution results in
tier becoming a character column, losing its
factor class. This is due to the fact that case_when() is a
recoding function, it creates an entirely new column and
doesn’t know that you’re trying to retain existing type information.

tiers |>
  mutate(
    tier = case_when(id %in% id_with_malfunction ~ "unknown", .default = tier)
  )
#> # A tibble: 100 × 3
#>      id  time tier   
#>   <int> <dbl> <chr>  
#> 1     1  26.9 unknown
#> 2     2  27.7 C      
#> 3     3  23.0 A      
#> 4     4  28.8 C      
#> # ℹ 96 more rows

As a replacing function, replace_when() knows
to be type stable on tier, and casts "unknown"
to tier’s factor type before performing the
replacement:

tiers |>
  mutate(
    tier = tier |> replace_when(id %in% id_with_malfunction ~ "unknown")
  )
#> # A tibble: 100 × 3
#>      id  time tier   
#>   <int> <dbl> <fct>  
#> 1     1  26.9 unknown
#> 2     2  27.7 C      
#> 3     3  23.0 A      
#> 4     4  28.8 C      
#> # ℹ 96 more rows
…
We could certainly use a case_when():

likert |>
  mutate(
    score = case_when(
      score == 1 ~ "Strongly disagree",
      score == 2 ~ "Disagree",
      score == 3 ~ "Neutral",
      score == 4 ~ "Agree",
      score == 5 ~ "Strongly agree"
    )
  )
#> # A tibble: 9 × 1
#>   score            
#>   <chr>            
#> 1 Strongly disagree
#> 2 Disagree         
#> 3 Neutral          
#> 4 Agree            
#> # ℹ 5 more rows
…
likert |>
  mutate(
    score = score |>
      recode_values(
        1 ~ "Strongly disagree",
        2 ~ "Disagree",
        3 ~ "Neutral",
        4 ~ "Agree",
        5 ~ "Strongly agree"
      )
  )
#> # A tibble: 9 × 1
#>   score            
#>   <chr>            
#> 1 Strongly disagree
#> 2 Disagree         
#> 3 Neutral          
#> 4 Agree            
#> # ℹ 5 more rows
…
We can then utilize the alternative from and
to arguments of recode_values() rather than
supplying formulas to specify how the values should be recoded:

likert |>
  mutate(score = recode_values(score, from = lookup$from, to = lookup$to))
#> # A tibble: 9 × 1
#>   score            
#>   <chr>            
#> 1 Strongly disagree
#> 2 Disagree         
#> 3 Neutral          
#> 4 Agree            
#> # ℹ 5 more rows
…
We could use recode_values():

schools |>
  mutate(
    name = recode_values(
      name,
      c("UNC", "Chapel Hill") ~ "UNC Chapel Hill",
      c("Duke", "Duke University") ~ "Duke",
      default = name
    )
  )
#> # A tibble: 8 × 1
#>   name           
#>   <chr>          
#> 1 UNC Chapel Hill
#> 2 UNC Chapel Hill
#> 3 <NA>           
#> 4 Duke           
#> # ℹ 4 more rows

But this “partial update by value” is so common that it really
deserves its own name that doesn’t require you to specify
default. For that, we have
replace_values():

schools |>
  mutate(
    name = name |>
      replace_values(
        c("UNC", "Chapel Hill") ~ "UNC Chapel Hill",
        c("Duke", "Duke University") ~ "Duke"
      )
  )
#> # A tibble: 8 × 1
#>   name           
#>   <chr>          
#> 1 UNC Chapel Hill
#> 2 UNC Chapel Hill
#> 3 <NA>           
#> 4 Duke           
#> # ℹ 4 more rows
…
lookup <- tribble(
  ~from             , ~to               ,
  "UNC"             , "UNC Chapel Hill" ,
  "Chapel Hill"     , "UNC Chapel Hill" ,
  "Duke"            , "Duke"            ,
  "Duke University" , "Duke"
)

schools |>
  mutate(name = replace_values(name, from = lookup$from, to = lookup$to))
#> # A tibble: 8 × 1
#>   name           
#>   <chr>          
#> 1 UNC Chapel Hill
#> 2 UNC Chapel Hill
#> 3 <NA>           
#> 4 Duke           
#> # ℹ 4 more rows
…
lookup$from
#> [[1]]
#> [1] "UNC"         "Chapel Hill"
#> 
#> [[2]]
#> [1] "Duke"            "Duke University"

# Works the same as before
schools |>
  mutate(name = replace_values(name, from = lookup$from, to = lookup$to))
#> # A tibble: 8 × 1
#>   name           
#>   <chr>          
#> 1 UNC Chapel Hill
#> 2 UNC Chapel Hill
#> 3 <NA>           
#> 4 Duke           
#> # ℹ 4 more rows
…
